{
  "auth" : "cpan:MZIESCHA",
  "authors" : [
    "Mario Zieschang"
  ],
  "build-depends" : [ ],
  "depends" : [
    "DBIish"
  ],
  "description" : "a predefined sql framework for Perl6",
  "license" : "Artistic-2.0",
  "name" : "DBIx::NamedQueries",
  "perl" : "6.c",
  "provides" : {
    "DBIx::NamedQueries" : "lib/DBIx/NamedQueries.pm",
    "DBIx::NamedQueries::Handle::DBIish" : "lib/DBIx/NamedQueries/Handle/DBIish.pm",
    "DBIx::NamedQueries::Handles" : "lib/DBIx/NamedQueries/Handles.pm",
    "DBIx::NamedQueries::Plugins" : "lib/DBIx/NamedQueries/Plugins.pm"
  },
  "resources" : [ ],
  "source-url" : "git://gitlab.com/mziescha/perl6-DBIx-NamedQueries.git",
  "support" : {
    "bugtracker" : "https://gitlab.com/mziescha/perl6-DBIx-NamedQueries/issues",
    "source" : "git://gitlab.com/mziescha/perl6-DBIx-NamedQueries.git"
  },
  "tags" : [
    "DBI",
    "Database"
  ],
  "test-depends" : [
    "Test::META",
    "Path::Iterator"
  ],
  "version" : "0.0.3"
}
